Gapminder2
…
## # A tibble: 1 x 1
##      mu
##   <dbl>
## 1  59.5

gapminder %>% 

  filter(lifeExp<mean(lifeExp)) %>% 
  #filtered all rows that have lifeExp less than the mean lifeExp.
  
  count(continent,year) 

## # A tibble: 40 x 3
##    continent  year     n
##    <fct>     <int> <int>
##  1 Africa     1952    52
##  2 Africa     1957    52
##  3 Africa     1962    51
##  4 Africa     1967    50
##  5 Africa     1972    50
##  6 Africa     1977    49
##  7 Africa     1982    43
##  8 Africa     1987    39
##  9 Africa     1992    38
## 10 Africa     1997    39
## # ... with 30 more rows
…
